Test MCNP
c ############### CELLS ###############
10 1001 -1.686587 -102 +101 -104 +103 -106 +105 imp:n=1
c
98 0              -999 #10                      imp:n=0
99 0              +999                          imp:n=0
c
c
c
c
c

c ############## SURFACES #############
*101 px -1.0
*102 px  1.0
*103 py -1.0
*104 py  1.0
105 pz  0.0
106 pz  30.0
c
999 so 100.0

c ############### MATERIALS ############
m1001 6000.80c -1.0
mt1001 grph.10t
c
c
c
c
c ############### PROBLEM ###############
mode n
c
c sdef x=d1 y=d2 z=0.0001 erg=10.875
sdef erg=10.875 sur=105 cel=10
si1 -1.0 1.0
sp1  0.0 1.0
si2 -1.0 1.0
sp2  0.0 1.0
si3  10.75 11.0
sp3  0.0 1.0
c
c
f4:n 10
fmesh14:n geom=xyz
         origin=-1.0 -1.0 0.0
         imesh=1.0
         iints=1
         jmesh=1.0
         jints=1
         kmesh=30.0
         kints=80
         emesh=  6.0000E-11 1.8220E-09 4.9711E-09
                 6.1800E-09 7.2888E-09 8.6155E-09 9.0600E-09 1.1400E-08
                 1.3547E-08 1.3600E-08 1.5369E-08 1.5500E-08 1.7400E-08
                 1.9200E-08 2.0835E-08 2.1000E-08 2.2800E-08 2.4500E-08
                 2.6300E-08 2.8000E-08 2.9700E-08 2.9946E-08 3.1500E-08
                 3.3300E-08 3.5100E-08 3.7000E-08 3.8900E-08 4.0800E-08
                 4.2800E-08 4.2997E-08 4.4900E-08 4.7000E-08 4.9300E-08
                 5.1600E-08 5.4000E-08 5.6600E-08 5.9300E-08 6.2200E-08
                 6.5300E-08 6.8700E-08 7.2300E-08 7.6400E-08 8.0900E-08
                 8.6000E-08 9.2000E-08 9.9200E-08 1.0140E-07 1.0360E-07
                 1.0580E-07 1.0800E-07 1.1125E-07 1.1450E-07 1.1775E-07
                 1.2100E-07 1.2625E-07 1.3150E-07 1.3675E-07 1.4200E-07
                 1.5250E-07 1.6300E-07 1.7350E-07 1.8400E-07 1.9750E-07
                 2.1100E-07 2.2450E-07 2.3800E-07 2.5575E-07 2.7350E-07
                 2.9125E-07 3.0900E-07 3.3175E-07 3.5450E-07 3.7725E-07
                 4.0000E-07 4.4059E-07 4.8117E-07 5.2176E-07 5.6234E-07
                 6.7176E-07 7.8117E-07 8.9059E-07 1.0000E-06 1.1946E-06
                 1.3891E-06 1.5837E-06 1.7783E-06 2.1243E-06 2.4703E-06
                 2.8163E-06 3.1623E-06 3.7776E-06 4.3929E-06 5.0081E-06
                 5.6234E-06 6.7176E-06 7.8117E-06 8.9058E-06 1.0000E-05
                 1.7783E-05 3.1623E-05 5.6234E-05 1.0000E-04 1.7783E-04
                 3.1623E-04 5.6234E-04 1.0000E-03 1.7783E-03 3.1623E-03
                 5.6234E-03 1.0000E-02 1.7783E-02 3.1623E-02 5.6234E-02
                 1.0000E-01 1.7783E-01 3.1623E-01 5.6234E-01 1.0000E+00
                 1.5351E+00 2.0702E+00 2.0742E+00 2.0783E+00 2.0830E+00
                 2.0877E+00 2.4504E+00 2.8131E+00 2.8141E+00 2.8151E+00
                 2.8391E+00 2.8631E+00 2.9190E+00 2.9749E+00 3.0281E+00
                 3.0813E+00 3.5418E+00 4.0023E+00 4.4017E+00 4.8011E+00
                 4.8718E+00 4.9426E+00 5.1487E+00 5.3548E+00 5.3924E+00
                 5.4300E+00 5.8533E+00 6.2765E+00 6.3076E+00 6.3388E+00
                 6.4556E+00 6.5725E+00 6.9097E+00 7.2469E+00 7.4789E+00
                 7.7109E+00 7.9824E+00 8.2539E+00 8.3770E+00 8.5000E+00
                 8.7500E+00 9.0000E+00 9.2500E+00 9.5000E+00 9.7500E+00
                 1.0000E+01 1.0250E+01 1.0500E+01 1.0750E+01 1.1000E+01
E0 0.0000E+00
         6.0000E-11 1.8220E-09 4.9711E-09
         6.1800E-09 7.2888E-09 8.6155E-09 9.0600E-09 1.1400E-08
         1.3547E-08 1.3600E-08 1.5369E-08 1.5500E-08 1.7400E-08
         1.9200E-08 2.0835E-08 2.1000E-08 2.2800E-08 2.4500E-08
         2.6300E-08 2.8000E-08 2.9700E-08 2.9946E-08 3.1500E-08
         3.3300E-08 3.5100E-08 3.7000E-08 3.8900E-08 4.0800E-08
         4.2800E-08 4.2997E-08 4.4900E-08 4.7000E-08 4.9300E-08
         5.1600E-08 5.4000E-08 5.6600E-08 5.9300E-08 6.2200E-08
         6.5300E-08 6.8700E-08 7.2300E-08 7.6400E-08 8.0900E-08
         8.6000E-08 9.2000E-08 9.9200E-08 1.0140E-07 1.0360E-07
         1.0580E-07 1.0800E-07 1.1125E-07 1.1450E-07 1.1775E-07
         1.2100E-07 1.2625E-07 1.3150E-07 1.3675E-07 1.4200E-07
         1.5250E-07 1.6300E-07 1.7350E-07 1.8400E-07 1.9750E-07
         2.1100E-07 2.2450E-07 2.3800E-07 2.5575E-07 2.7350E-07
         2.9125E-07 3.0900E-07 3.3175E-07 3.5450E-07 3.7725E-07
         4.0000E-07 4.4059E-07 4.8117E-07 5.2176E-07 5.6234E-07
         6.7176E-07 7.8117E-07 8.9059E-07 1.0000E-06 1.1946E-06
         1.3891E-06 1.5837E-06 1.7783E-06 2.1243E-06 2.4703E-06
         2.8163E-06 3.1623E-06 3.7776E-06 4.3929E-06 5.0081E-06
         5.6234E-06 6.7176E-06 7.8117E-06 8.9058E-06 1.0000E-05
         1.7783E-05 3.1623E-05 5.6234E-05 1.0000E-04 1.7783E-04
         3.1623E-04 5.6234E-04 1.0000E-03 1.7783E-03 3.1623E-03
         5.6234E-03 1.0000E-02 1.7783E-02 3.1623E-02 5.6234E-02
         1.0000E-01 1.7783E-01 3.1623E-01 5.6234E-01 1.0000E+00
         1.5351E+00 2.0702E+00 2.0742E+00 2.0783E+00 2.0830E+00
         2.0877E+00 2.4504E+00 2.8131E+00 2.8141E+00 2.8151E+00
         2.8391E+00 2.8631E+00 2.9190E+00 2.9749E+00 3.0281E+00
         3.0813E+00 3.5418E+00 4.0023E+00 4.4017E+00 4.8011E+00
         4.8718E+00 4.9426E+00 5.1487E+00 5.3548E+00 5.3924E+00
         5.4300E+00 5.8533E+00 6.2765E+00 6.3076E+00 6.3388E+00
         6.4556E+00 6.5725E+00 6.9097E+00 7.2469E+00 7.4789E+00
         7.7109E+00 7.9824E+00 8.2539E+00 8.3770E+00 8.5000E+00
         8.7500E+00 9.0000E+00 9.2500E+00 9.5000E+00 9.7500E+00
         1.0000E+01 1.0250E+01 1.0500E+01 1.0750E+01 1.1000E+01
c
c
c
c
c
nps 10.0e7



